uf,sexo,bp,bm,bi,np,nm,ni,ap,am,ai,ip,im,ii
AC,Homens,0.113,0.346,1.000,0.369,0.192,5.844,0.009,0.000,,0.011,0.000,
AC,Mulheres,0.120,0.231,1.585,0.357,0.231,4.715,0.011,0.000,,0.010,0.000,
AL,Homens,0.146,0.487,1.000,0.331,0.282,3.907,0.005,0.000,,0.002,0.000,
AL,Mulheres,0.164,0.167,3.273,0.343,0.064,17.799,0.007,0.000,,0.002,0.000,
AM,Homens,0.102,0.370,1.000,0.372,0.185,7.276,0.004,0.015,0.990,0.025,0.000,
AM,Mulheres,0.110,0.259,1.535,0.359,0.163,7.970,0.005,0.007,2.487,0.023,0.000,
AP,Homens,0.113,0.439,1.000,0.377,0.263,5.574,0.005,0.000,,0.005,0.000,
AP,Mulheres,0.125,0.140,3.460,0.364,0.158,8.951,0.005,0.000,,0.006,0.000,
BA,Homens,0.106,0.337,1.000,0.378,0.221,5.454,0.005,0.002,7.180,0.002,0.000,
BA,Mulheres,0.114,0.228,1.599,0.387,0.210,5.885,0.006,0.000,,0.002,0.002,2.832
CE,Homens,0.149,0.414,1.000,0.332,0.230,4.011,0.005,0.000,,0.001,0.000,
CE,Mulheres,0.167,0.230,2.023,0.337,0.125,7.495,0.007,0.000,,0.001,0.000,
DF,Homens,0.194,0.392,1.000,0.275,0.194,2.870,0.007,0.005,2.622,0.001,0.000,
DF,Mulheres,0.224,0.306,1.474,0.287,0.086,6.728,0.010,0.016,1.204,0.001,0.000,
ES,Homens,0.203,0.530,1.000,0.285,0.158,4.713,0.003,0.000,,0.001,0.000,
ES,Mulheres,0.218,0.247,2.305,0.285,0.065,11.431,0.004,0.000,,0.001,0.000,
GO,Homens,0.201,0.535,1.000,0.287,0.101,7.569,0.008,0.007,3.000,0.001,0.003,0.489
GO,Mulheres,0.213,0.286,1.983,0.280,0.067,11.076,0.009,0.000,,0.001,0.000,
MA,Homens,0.105,0.355,1.000,0.384,0.310,4.192,0.005,0.000,,0.003,0.000,
MA,Mulheres,0.114,0.230,1.684,0.381,0.104,12.333,0.006,0.000,,0.003,0.000,
MG,Homens,0.217,0.611,1.000,0.269,0.099,7.668,0.004,0.004,2.925,0.001,0.000,
MG,Mulheres,0.233,0.239,2.747,0.269,0.045,16.682,0.005,0.000,,0.001,0.002,1.117
MS,Homens,0.228,0.656,1.000,0.250,0.061,11.742,0.006,0.025,0.669,0.015,0.000,
MS,Mulheres,0.241,0.233,2.977,0.240,0.018,37.607,0.006,0.006,2.970,0.015,0.000,
MT,Homens,0.187,0.520,1.000,0.311,0.156,5.543,0.006,0.017,0.895,0.007,0.000,
MT,Mulheres,0.185,0.260,1.978,0.291,0.040,20.034,0.006,0.005,3.002,0.007,0.000,
PA,Homens,0.105,0.365,1.000,0.392,0.269,5.082,0.004,0.004,3.586,0.003,0.004,2.207
PA,Mulheres,0.111,0.237,1.634,0.377,0.120,10.906,0.005,0.000,,0.002,0.000,
PB,Homens,0.187,0.403,1.000,0.289,0.235,2.651,0.005,0.000,,0.003,0.000,
PB,Mulheres,0.210,0.286,1.582,0.296,0.076,8.445,0.007,0.000,,0.003,0.000,
PE,Homens,0.170,0.476,1.000,0.304,0.207,4.096,0.004,0.003,3.456,0.003,0.003,
PE,Mulheres,0.195,0.243,2.239,0.316,0.071,12.395,0.005,0.000,,0.003,0.000,
PI,Homens,0.116,0.397,1.000,0.364,0.351,3.559,0.009,0.000,,0.000,0.000,
PI,Mulheres,0.126,0.160,2.705,0.371,0.092,13.882,0.012,0.000,,0.001,0.000,
PR,Homens,0.339,0.539,1.000,0.146,0.042,5.546,0.006,0.022,0.407,0.001,0.000,
PR,Mulheres,0.362,0.366,1.575,0.139,0.019,11.427,0.006,0.012,0.823,0.001,0.000,
RJ,Homens,0.221,0.448,1.000,0.252,0.046,11.217,0.003,0.004,1.544,0.000,0.002,0.402
RJ,Mulheres,0.253,0.457,1.126,0.265,0.039,13.733,0.004,0.002,4.067,0.001,0.002,0.488
RN,Homens,0.194,0.418,1.000,0.290,0.139,4.482,0.004,0.000,,0.000,0.000,
RN,Mulheres,0.214,0.294,1.573,0.290,0.149,4.185,0.006,0.000,,0.000,0.000,
RO,Homens,0.174,0.445,1.000,0.322,0.182,4.530,0.007,0.009,1.882,0.004,0.000,
RO,Mulheres,0.175,0.255,1.761,0.303,0.100,7.752,0.008,0.009,2.191,0.004,0.000,
RR,Homens,0.101,0.471,1.000,0.346,0.235,6.849,0.004,0.000,,0.057,0.029,9.047
RR,Mulheres,0.108,0.176,2.855,0.324,0.088,17.115,0.005,0.000,,0.055,0.000,
RS,Homens,0.402,0.509,1.000,0.081,0.016,6.500,0.002,0.004,0.514,0.002,0.000,
RS,Mulheres,0.430,0.453,1.200,0.080,0.014,7.302,0.002,0.004,0.549,0.002,0.000,
SC,Homens,0.412,0.685,1.000,0.081,0.015,8.687,0.002,0.000,,0.001,0.000,
SC,Mulheres,0.426,0.287,2.470,0.074,0.012,9.969,0.002,0.000,,0.001,0.000,
SE,Homens,0.131,0.318,1.000,0.348,0.261,3.222,0.005,0.000,,0.001,0.000,
SE,Mulheres,0.146,0.284,1.245,0.359,0.136,6.376,0.007,0.000,,0.001,0.000,
SP,Homens,0.304,0.603,1.000,0.175,0.031,11.180,0.007,0.023,0.568,0.001,0.000,
SP,Mulheres,0.332,0.323,2.039,0.173,0.011,32.579,0.007,0.009,1.590,0.001,0.000,
TO,Homens,0.122,0.500,1.000,0.372,0.231,6.617,0.009,0.010,3.859,0.005,0.000,
TO,Mulheres,0.123,0.163,3.081,0.354,0.096,15.121,0.010,0.000,,0.005,0.000,
